<svg xmlns="http://www.w3.org/2000/svg" xmlns:xlink="http://www.w3.org/1999/xlink" width="1330.001" height="72.533" viewBox="0 0 1330.001 72.533">
  <defs>
    <clipPath id="clip-path">
      <text id="New_Products" data-name="New Products" transform="translate(134.999 44.967)" font-size="48" font-family="FredokaOne-Regular, Fredoka One" fill="none"><tspan x="0" y="0">New</tspan><tspan y="0" xml:space="preserve" font-size="60" font-family="Cookie-Regular, Cookie"> Products</tspan></text>
    </clipPath>
  </defs>
  <g id="Layer_2" data-name="Layer 2" transform="translate(-134.999 2.033)">
    <rect id="Rectangle_1" data-name="Rectangle 1" width="1064" height="2" transform="translate(401 57)" fill="#4a4a4a" opacity="0.85"/>
    <text id="สินค้ามาใหม่_" data-name="สินค้ามาใหม่!" transform="translate(414.5 44.5)" fill="#4a4a4a" font-size="36" font-family="SanamDeklenchaya"><tspan x="0" y="0">สินค้ามาใหม่!</tspan></text>
    <text id="สินค้ามาใหม่_2" data-name="สินค้ามาใหม่!" transform="translate(414.5 44.5)" fill="#4a4a4a" font-size="36" font-family="SanamDeklenchaya"><tspan x="0" y="0">สินค้ามาใหม่!</tspan></text>
    <rect id="Rectangle_2" data-name="Rectangle 2" width="30" height="9" rx="4.5" transform="translate(135 57)" fill="#fd2e64"/>
    <g id="Group_2" data-name="Group 2">
      <g id="Group_1" data-name="Group 1" clip-path="url(#clip-path)">
        <path id="Path_1" data-name="Path 1" d="M462.955,65.311H99.746l181.6-76.344h181.6Z" fill="#4a4a4a"/>
        <path id="Path_2" data-name="Path 2" d="M99.746,65.311h0V-11.033h181.6Z" fill="#3fa9f5"/>
        <path id="Path_3" data-name="Path 3" d="M464,65.311H281.351l181.6-76.344H464Z" fill="#ff7bac"/>
      </g>
    </g>
    <g id="Group_3" data-name="Group 3">
      <path id="Path_4" data-name="Path 4" d="M392,66H142V57H404Z" fill="#fd2e64"/>
      <rect id="Rectangle_3" data-name="Rectangle 3" width="30" height="9" rx="4.5" transform="translate(135 57)" fill="#fd2e64"/>
    </g>
  </g>
</svg>
